%YAML 1.1
%TAG !u! tag:unity3d.com,2011:
--- !u!29 &1
OcclusionCullingSettings:
  m_ObjectHideFlags: 0
  serializedVersion: 2
  m_OcclusionBakeSettings:
    smallestOccluder: 5
    smallestHole: 0.25
    backfaceThreshold: 100
  m_SceneGUID: 00000000000000000000000000000000
  m_OcclusionCullingData: {fileID: 0}
--- !u!104 &2
RenderSettings:
  m_ObjectHideFlags: 0
  serializedVersion: 9
  m_Fog: 0
  m_FogColor: {r: 0.5, g: 0.5, b: 0.5, a: 1}
  m_FogMode: 3
  m_FogDensity: 0.01
  m_LinearFogStart: 0
  m_LinearFogEnd: 300
  m_AmbientSkyColor: {r: 0.212, g: 0.227, b: 0.259, a: 1}
  m_AmbientEquatorColor: {r: 0.114, g: 0.125, b: 0.133, a: 1}
  m_AmbientGroundColor: {r: 0.047, g: 0.043, b: 0.035, a: 1}
  m_AmbientIntensity: 1
  m_AmbientMode: 0
  m_SubtractiveShadowColor: {r: 0.42, g: 0.478, b: 0.627, a: 1}
  m_SkyboxMaterial: {fileID: 10304, guid: 0000000000000000f000000000000000, type: 0}
  m_HaloStrength: 0.5
  m_FlareStrength: 1
  m_FlareFadeSpeed: 3
  m_HaloTexture: {fileID: 0}
  m_SpotCookie: {fileID: 10001, guid: 0000000000000000e000000000000000, type: 0}
  m_DefaultReflectionMode: 0
  m_DefaultReflectionResolution: 128
  m_ReflectionBounces: 1
  m_ReflectionIntensity: 1
  m_CustomReflection: {fileID: 0}
  m_Sun: {fileID: 0}
  m_UseRadianceAmbientProbe: 0
--- !u!157 &3
LightmapSettings:
  m_ObjectHideFlags: 0
  serializedVersion: 12
  m_GIWorkflowMode: 1
  m_GISettings:
    serializedVersion: 2
    m_BounceScale: 1
    m_IndirectOutputScale: 1
    m_AlbedoBoost: 1
    m_EnvironmentLightingMode: 0
    m_EnableBakedLightmaps: 1
    m_EnableRealtimeLightmaps: 1
  m_LightmapEditorSettings:
    serializedVersion: 12
    m_Resolution: 2
    m_BakeResolution: 40
    m_AtlasSize: 1024
    m_AO: 0
    m_AOMaxDistance: 1
    m_CompAOExponent: 1
    m_CompAOExponentDirect: 0
    m_ExtractAmbientOcclusion: 0
    m_Padding: 2
    m_LightmapParameters: {fileID: 0}
    m_LightmapsBakeMode: 1
    m_TextureCompression: 1
    m_FinalGather: 0
    m_FinalGatherFiltering: 1
    m_FinalGatherRayCount: 256
    m_ReflectionCompression: 2
    m_MixedBakeMode: 2
    m_BakeBackend: 0
    m_PVRSampling: 1
    m_PVRDirectSampleCount: 32
    m_PVRSampleCount: 500
    m_PVRBounces: 2
    m_PVREnvironmentSampleCount: 500
    m_PVREnvironmentReferencePointCount: 2048
    m_PVRFilteringMode: 2
    m_PVRDenoiserTypeDirect: 0
    m_PVRDenoiserTypeIndirect: 0
    m_PVRDenoiserTypeAO: 0
    m_PVRFilterTypeDirect: 0
    m_PVRFilterTypeIndirect: 0
    m_PVRFilterTypeAO: 0
    m_PVREnvironmentMIS: 0
    m_PVRCulling: 1
    m_PVRFilteringGaussRadiusDirect: 1
    m_PVRFilteringGaussRadiusIndirect: 5
    m_PVRFilteringGaussRadiusAO: 2
    m_PVRFilteringAtrousPositionSigmaDirect: 0.5
    m_PVRFilteringAtrousPositionSigmaIndirect: 2
    m_PVRFilteringAtrousPositionSigmaAO: 1
    m_ExportTrainingData: 0
    m_TrainingDataDestination: TrainingData
    m_LightProbeSampleCountMultiplier: 4
  m_LightingDataAsset: {fileID: 0}
  m_LightingSettings: {fileID: 4890085278179872738, guid: 46737f52f20f3aa4e9f5df7381d0a114, type: 2}
--- !u!196 &4
NavMeshSettings:
  serializedVersion: 2
  m_ObjectHideFlags: 0
  m_BuildSettings:
    serializedVersion: 3
    agentTypeID: 0
    agentRadius: 0.5
    agentHeight: 2
    agentSlope: 45
    agentClimb: 0.4
    ledgeDropHeight: 0
    maxJumpAcrossDistance: 0
    minRegionArea: 2
    manualCellSize: 0
    cellSize: 0.16666667
    manualTileSize: 0
    tileSize: 256
    buildHeightMesh: 0
    maxJobWorkers: 0
    preserveTilesOutsideBounds: 0
    debug:
      m_Flags: 0
  m_NavMeshData: {fileID: 0}
--- !u!1001 &149485209
PrefabInstance:
  m_ObjectHideFlags: 0
  serializedVersion: 2
  m_Modification:
    serializedVersion: 3
    m_TransformParent: {fileID: 0}
    m_Modifications:
    - target: {fileID: 2381185569209731246, guid: 97b375b48d6faf242adbb88d03fae830, type: 3}
      propertyPath: m_Name
      value: OVRCameraRigInteraction
      objectReference: {fileID: 0}
    - target: {fileID: 3558542690557102407, guid: 97b375b48d6faf242adbb88d03fae830, type: 3}
      propertyPath: m_LocalPosition.x
      value: 0
      objectReference: {fileID: 0}
    - target: {fileID: 3558542690557102407, guid: 97b375b48d6faf242adbb88d03fae830, type: 3}
      propertyPath: m_LocalPosition.y
      value: 0
      objectReference: {fileID: 0}
    - target: {fileID: 3558542690557102407, guid: 97b375b48d6faf242adbb88d03fae830, type: 3}
      propertyPath: m_LocalPosition.z
      value: 0
      objectReference: {fileID: 0}
    - target: {fileID: 3558542690557102407, guid: 97b375b48d6faf242adbb88d03fae830, type: 3}
      propertyPath: m_LocalRotation.w
      value: 1
      objectReference: {fileID: 0}
    - target: {fileID: 3558542690557102407, guid: 97b375b48d6faf242adbb88d03fae830, type: 3}
      propertyPath: m_LocalRotation.x
      value: 0
      objectReference: {fileID: 0}
    - target: {fileID: 3558542690557102407, guid: 97b375b48d6faf242adbb88d03fae830, type: 3}
      propertyPath: m_LocalRotation.y
      value: 0
      objectReference: {fileID: 0}
    - target: {fileID: 3558542690557102407, guid: 97b375b48d6faf242adbb88d03fae830, type: 3}
      propertyPath: m_LocalRotation.z
      value: 0
      objectReference: {fileID: 0}
    - target: {fileID: 3558542690557102407, guid: 97b375b48d6faf242adbb88d03fae830, type: 3}
      propertyPath: m_LocalEulerAnglesHint.x
      value: 0
      objectReference: {fileID: 0}
    - target: {fileID: 3558542690557102407, guid: 97b375b48d6faf242adbb88d03fae830, type: 3}
      propertyPath: m_LocalEulerAnglesHint.y
      value: 0
      objectReference: {fileID: 0}
    - target: {fileID: 3558542690557102407, guid: 97b375b48d6faf242adbb88d03fae830, type: 3}
      propertyPath: m_LocalEulerAnglesHint.z
      value: 0
      objectReference: {fileID: 0}
    - target: {fileID: 3599060766195771468, guid: 97b375b48d6faf242adbb88d03fae830, type: 3}
      propertyPath: m_LocalPosition.y
      value: 0
      objectReference: {fileID: 0}
    - target: {fileID: 3599060766195771468, guid: 97b375b48d6faf242adbb88d03fae830, type: 3}
      propertyPath: m_LocalPosition.z
      value: 0
      objectReference: {fileID: 0}
    m_RemovedComponents: []
    m_RemovedGameObjects: []
    m_AddedGameObjects: []
    m_AddedComponents: []
  m_SourcePrefab: {fileID: 100100000, guid: 97b375b48d6faf242adbb88d03fae830, type: 3}
--- !u!114 &705096212 stripped
MonoBehaviour:
  m_CorrespondingSourceObject: {fileID: 6979754614483594038, guid: 97b375b48d6faf242adbb88d03fae830, type: 3}
  m_PrefabInstance: {fileID: 149485209}
  m_PrefabAsset: {fileID: 0}
  m_GameObject: {fileID: 0}
  m_Enabled: 1
  m_EditorHideFlags: 0
  m_Script: {fileID: 11500000, guid: df8e1d778abf442e4bec449c360e9e1c, type: 3}
  m_Name: 
  m_EditorClassIdentifier: 
--- !u!1001 &1023118011
PrefabInstance:
  m_ObjectHideFlags: 0
  serializedVersion: 2
  m_Modification:
    serializedVersion: 3
    m_TransformParent: {fileID: 0}
    m_Modifications:
    - target: {fileID: 2053672317924912110, guid: 354fd9a3e34522743a55ba16d3bf7fdd, type: 3}
      propertyPath: m_Enabled
      value: 0
      objectReference: {fileID: 0}
    - target: {fileID: 4455649247815481971, guid: 354fd9a3e34522743a55ba16d3bf7fdd, type: 3}
      propertyPath: m_Name
      value: SceneManager
      objectReference: {fileID: 0}
    - target: {fileID: 6357274229675404568, guid: 354fd9a3e34522743a55ba16d3bf7fdd, type: 3}
      propertyPath: m_LocalPosition.x
      value: -12.824158
      objectReference: {fileID: 0}
    - target: {fileID: 6357274229675404568, guid: 354fd9a3e34522743a55ba16d3bf7fdd, type: 3}
      propertyPath: m_LocalPosition.y
      value: 33.752922
      objectReference: {fileID: 0}
    - target: {fileID: 6357274229675404568, guid: 354fd9a3e34522743a55ba16d3bf7fdd, type: 3}
      propertyPath: m_LocalPosition.z
      value: -2.85257
      objectReference: {fileID: 0}
    - target: {fileID: 6357274229675404568, guid: 354fd9a3e34522743a55ba16d3bf7fdd, type: 3}
      propertyPath: m_LocalRotation.w
      value: 1
      objectReference: {fileID: 0}
    - target: {fileID: 6357274229675404568, guid: 354fd9a3e34522743a55ba16d3bf7fdd, type: 3}
      propertyPath: m_LocalRotation.x
      value: 0
      objectReference: {fileID: 0}
    - target: {fileID: 6357274229675404568, guid: 354fd9a3e34522743a55ba16d3bf7fdd, type: 3}
      propertyPath: m_LocalRotation.y
      value: 0
      objectReference: {fileID: 0}
    - target: {fileID: 6357274229675404568, guid: 354fd9a3e34522743a55ba16d3bf7fdd, type: 3}
      propertyPath: m_LocalRotation.z
      value: 0
      objectReference: {fileID: 0}
    - target: {fileID: 6357274229675404568, guid: 354fd9a3e34522743a55ba16d3bf7fdd, type: 3}
      propertyPath: m_LocalEulerAnglesHint.x
      value: 0
      objectReference: {fileID: 0}
    - target: {fileID: 6357274229675404568, guid: 354fd9a3e34522743a55ba16d3bf7fdd, type: 3}
      propertyPath: m_LocalEulerAnglesHint.y
      value: 0
      objectReference: {fileID: 0}
    - target: {fileID: 6357274229675404568, guid: 354fd9a3e34522743a55ba16d3bf7fdd, type: 3}
      propertyPath: m_LocalEulerAnglesHint.z
      value: 0
      objectReference: {fileID: 0}
    m_RemovedComponents: []
    m_RemovedGameObjects: []
    m_AddedGameObjects: []
    m_AddedComponents: []
  m_SourcePrefab: {fileID: 100100000, guid: 354fd9a3e34522743a55ba16d3bf7fdd, type: 3}
--- !u!114 &1023118012 stripped
MonoBehaviour:
  m_CorrespondingSourceObject: {fileID: 6332762831553610259, guid: 354fd9a3e34522743a55ba16d3bf7fdd, type: 3}
  m_PrefabInstance: {fileID: 1023118011}
  m_PrefabAsset: {fileID: 0}
  m_GameObject: {fileID: 0}
  m_Enabled: 1
  m_EditorHideFlags: 0
  m_Script: {fileID: 11500000, guid: 04518bc0a7242be48a7d71b769b63cbe, type: 3}
  m_Name: 
  m_EditorClassIdentifier: 
--- !u!114 &1023118013 stripped
MonoBehaviour:
  m_CorrespondingSourceObject: {fileID: 1120688721381435864, guid: 354fd9a3e34522743a55ba16d3bf7fdd, type: 3}
  m_PrefabInstance: {fileID: 1023118011}
  m_PrefabAsset: {fileID: 0}
  m_GameObject: {fileID: 0}
  m_Enabled: 1
  m_EditorHideFlags: 0
  m_Script: {fileID: 11500000, guid: 79effc3224584c74f9b529f4e24e5a1d, type: 3}
  m_Name: 
  m_EditorClassIdentifier: 
--- !u!1 &1599412321
GameObject:
  m_ObjectHideFlags: 0
  m_CorrespondingSourceObject: {fileID: 0}
  m_PrefabInstance: {fileID: 0}
  m_PrefabAsset: {fileID: 0}
  serializedVersion: 6
  m_Component:
  - component: {fileID: 1599412323}
  - component: {fileID: 1599412322}
  m_Layer: 0
  m_Name: MediaPlayer
  m_TagString: Untagged
  m_Icon: {fileID: 0}
  m_NavMeshLayer: 0
  m_StaticEditorFlags: 0
  m_IsActive: 1
--- !u!114 &1599412322
MonoBehaviour:
  m_ObjectHideFlags: 0
  m_CorrespondingSourceObject: {fileID: 0}
  m_PrefabInstance: {fileID: 0}
  m_PrefabAsset: {fileID: 0}
  m_GameObject: {fileID: 1599412321}
  m_Enabled: 1
  m_EditorHideFlags: 0
  m_Script: {fileID: 11500000, guid: 638c870cac4da414fba921606d504407, type: 3}
  m_Name: 
  m_EditorClassIdentifier: 
  _mediaSource: 1
  _mediaReference: {fileID: 11400000, guid: 0d696b76d81c0e640a7dbcc2d148b9ec, type: 2}
  _mediaPath:
    _pathType: 0
    _path: C:\Users\Chandler\Downloads\test (1).mp4
  _fallbackMediaHints:
    transparency: 0
    alphaPacking: 0
    stereoPacking: 1
  _autoOpen: 1
  _autoPlayOnStart: 1
  _loop: 0
  _audioVolume: 1
  _audioBalance: 0
  _audioMuted: 0
  _playbackRate: 1
  _useResampler: 0
  _resampleMode: 0
  _resampleBufferSize: 5
  _videoMapping: 2
  _textureFilterMode: 2
  _textureWrapMode: 1
  _textureAnisoLevel: 0
  _sideloadSubtitles: 0
  _subtitlePath:
    _pathType: 2
    _path: AVProVideoSamples/Cones-2D-4K60-HEVC.mp4
  _audioHeadTransform: {fileID: 0}
  _audioFocusEnabled: 0
  _audioFocusTransform: {fileID: 0}
  _audioFocusWidthDegrees: 90
  _audioFocusOffLevelDB: 0
  _httpHeaders:
    httpHeaders: []
  _keyAuth:
    keyServerToken: 
    overrideDecryptionKeyBase64: 
    overrideDecryptionKey: 
  _events:
    m_PersistentCalls:
      m_Calls:
      - m_Target: {fileID: 705096212}
        m_TargetAssemblyTypeName: OVRScreenFade, Oculus.VR
        m_MethodName: FadeOut
        m_Mode: 1
        m_Arguments:
          m_ObjectArgument: {fileID: 0}
          m_ObjectArgumentAssemblyTypeName: UnityEngine.Object, UnityEngine
          m_IntArgument: 0
          m_FloatArgument: 0
          m_StringArgument: 
          m_BoolArgument: 0
        m_CallState: 2
      - m_Target: {fileID: 1023118013}
        m_TargetAssemblyTypeName: PlayerPrefGetSet, Assembly-CSharp
        m_MethodName: SetSeymourVisited
        m_Mode: 1
        m_Arguments:
          m_ObjectArgument: {fileID: 0}
          m_ObjectArgumentAssemblyTypeName: UnityEngine.Object, UnityEngine
          m_IntArgument: 0
          m_FloatArgument: 0
          m_StringArgument: 
          m_BoolArgument: 0
        m_CallState: 2
      - m_Target: {fileID: 1023118012}
        m_TargetAssemblyTypeName: SceneTransition, Assembly-CSharp
        m_MethodName: GoToPreviousScene
        m_Mode: 1
        m_Arguments:
          m_ObjectArgument: {fileID: 0}
          m_ObjectArgumentAssemblyTypeName: UnityEngine.Object, UnityEngine
          m_IntArgument: 0
          m_FloatArgument: 0
          m_StringArgument: 
          m_BoolArgument: 0
        m_CallState: 2
  _eventMask: 16
  _pauseMediaOnAppPause: 1
  _playMediaOnAppUnpause: 1
  _persistent: 0
  _forceFileFormat: 3
  _optionsWindows:
    httpHeaders:
      httpHeaders: []
    keyAuth:
      keyServerToken: 
      overrideDecryptionKeyBase64: 
      overrideDecryptionKey: 
    videoApi: 0
    useHardwareDecoding: 1
    useRendererSync: 1
    useTextureMips: 0
    use10BitTextures: 0
    hintAlphaChannel: 0
    useLowLatency: 0
    useCustomMovParser: 0
    useHapNotchLC: 0
    useStereoDetection: 1
    useTextTrackSupport: 1
    useFacebookAudio360Support: 1
    useAudioDelay: 0
    bufferedFrameSelection: 0
    pauseOnPrerollComplete: 0
    forceAudioOutputDeviceName: 
    preferredFilters: []
    _audioMode: 0
    audio360ChannelMode: 0
    startWithHighestBitrate: 0
    useLowLiveLatency: 0
    parallelFrameCount: 3
    prerollFrameCount: 4
    useUnityAudio: 0
    enableAudio360: 0
  _options_macOS:
    httpHeaders:
      httpHeaders: []
    keyAuth:
      keyServerToken: 
      overrideDecryptionKeyBase64: 
      overrideDecryptionKey: 
    textureFormat: 0
    _audioMode: 0
    _flags: 0
    maximumPlaybackRate: 2
    _preferredPeakBitRate: 0
    _preferredPeakBitRateUnits: 1
    _preferredForwardBufferDuration: 0
    _preferredMaximumResolution: 0
    _customPreferredMaximumResolution: {x: 0, y: 0}
  _options_iOS:
    httpHeaders:
      httpHeaders: []
    keyAuth:
      keyServerToken: 
      overrideDecryptionKeyBase64: 
      overrideDecryptionKey: 
    textureFormat: 0
    _audioMode: 0
    _flags: 0
    maximumPlaybackRate: 2
    _preferredPeakBitRate: 0
    _preferredPeakBitRateUnits: 1
    _preferredForwardBufferDuration: 0
    _preferredMaximumResolution: 0
    _customPreferredMaximumResolution: {x: 0, y: 0}
  _options_tvOS:
    httpHeaders:
      httpHeaders: []
    keyAuth:
      keyServerToken: 
      overrideDecryptionKeyBase64: 
      overrideDecryptionKey: 
    textureFormat: 0
    _audioMode: 0
    _flags: 0
    maximumPlaybackRate: 2
    _preferredPeakBitRate: 0
    _preferredPeakBitRateUnits: 1
    _preferredForwardBufferDuration: 0
    _preferredMaximumResolution: 0
    _customPreferredMaximumResolution: {x: 0, y: 0}
  _options_visionOS:
    httpHeaders:
      httpHeaders: []
    keyAuth:
      keyServerToken: 
      overrideDecryptionKeyBase64: 
      overrideDecryptionKey: 
    textureFormat: 0
    _audioMode: 0
    _flags: 0
    maximumPlaybackRate: 2
    _preferredPeakBitRate: 0
    _preferredPeakBitRateUnits: 1
    _preferredForwardBufferDuration: 0
    _preferredMaximumResolution: 0
    _customPreferredMaximumResolution: {x: 0, y: 0}
  _optionsAndroid:
    httpHeaders:
      httpHeaders: []
    keyAuth:
      keyServerToken: 
      overrideDecryptionKeyBase64: 
      overrideDecryptionKey: 
    textureFormat: 0
    _audioMode: 0
    _preferredMaximumResolution: 0
    _customPreferredMaximumResolution: {x: 0, y: 0}
    _preferredPeakBitRate: 0
    _preferredPeakBitRateUnits: 1
    videoApi: 1
    showPosterFrame: 0
    audio360ChannelMode: 0
    audio360LatencyMS: 0
    preferSoftwareDecoder: 0
    forceRtpTCP: 0
    forceEnableMediaCodecAsynchronousQueueing: 0
    fileOffset: 0
    startWithHighestBitrate: 0
    minBufferMs: 50000
    maxBufferMs: 50000
    bufferForPlaybackMs: 2500
    bufferForPlaybackAfterRebufferMs: 5000
    useFastOesPath: 0
    audioOutput: 0
    blitTextureFiltering: 0
    forceEnableMediaCodecAsyncQueueing: 0
    enableAudio360: 0
  _optionsWindowsUWP:
    httpHeaders:
      httpHeaders: []
    keyAuth:
      keyServerToken: 
      overrideDecryptionKeyBase64: 
      overrideDecryptionKey: 
    useHardwareDecoding: 1
    useRendererSync: 1
    useTextureMips: 0
    use10BitTextures: 0
    hintOutput10Bit: 0
    useLowLatency: 0
    videoApi: 1
    audioOutput: 0
    audio360ChannelMode: 0
    startWithHighestBitrate: 0
    useLowLiveLatency: 0
  _optionsWebGL:
    httpHeaders:
      httpHeaders: []
    keyAuth:
      keyServerToken: 
      overrideDecryptionKeyBase64: 
      overrideDecryptionKey: 
    externalLibrary: 0
    useTextureMips: 0
  m_VideoPath: 
  m_VideoLocation: 2
--- !u!4 &1599412323
Transform:
  m_ObjectHideFlags: 0
  m_CorrespondingSourceObject: {fileID: 0}
  m_PrefabInstance: {fileID: 0}
  m_PrefabAsset: {fileID: 0}
  m_GameObject: {fileID: 1599412321}
  serializedVersion: 2
  m_LocalRotation: {x: 0, y: 0, z: 0, w: 1}
  m_LocalPosition: {x: 0, y: 0, z: 0}
  m_LocalScale: {x: 1, y: 1, z: 1}
  m_ConstrainProportionsScale: 0
  m_Children: []
  m_Father: {fileID: 0}
  m_LocalEulerAnglesHint: {x: 0, y: 0, z: 0}
--- !u!1 &2096229593
GameObject:
  m_ObjectHideFlags: 0
  m_CorrespondingSourceObject: {fileID: 0}
  m_PrefabInstance: {fileID: 0}
  m_PrefabAsset: {fileID: 0}
  serializedVersion: 6
  m_Component:
  - component: {fileID: 2096229597}
  - component: {fileID: 2096229596}
  - component: {fileID: 2096229595}
  - component: {fileID: 2096229594}
  m_Layer: 0
  m_Name: Sphere-ApplyToMesh
  m_TagString: Untagged
  m_Icon: {fileID: 0}
  m_NavMeshLayer: 0
  m_StaticEditorFlags: 0
  m_IsActive: 1
--- !u!114 &2096229594
MonoBehaviour:
  m_ObjectHideFlags: 0
  m_CorrespondingSourceObject: {fileID: 0}
  m_PrefabInstance: {fileID: 0}
  m_PrefabAsset: {fileID: 0}
  m_GameObject: {fileID: 2096229593}
  m_Enabled: 1
  m_EditorHideFlags: 0
  m_Script: {fileID: 11500000, guid: f6d1977a52888584496b1acc7e998011, type: 3}
  m_Name: 
  m_EditorClassIdentifier: 
  _media: {fileID: 1599412322}
  _automaticStereoPacking: 1
  _overrideStereoPacking: 0
  _stereoRedGreenTint: 0
  _defaultTexture: {fileID: 0}
  _renderer: {fileID: 2096229595}
  _materialIndex: -1
  _texturePropertyName: _MainTex
  _offset: {x: 0, y: 0}
  _scale: {x: 1, y: 1}
--- !u!23 &2096229595
MeshRenderer:
  m_ObjectHideFlags: 0
  m_CorrespondingSourceObject: {fileID: 0}
  m_PrefabInstance: {fileID: 0}
  m_PrefabAsset: {fileID: 0}
  m_GameObject: {fileID: 2096229593}
  m_Enabled: 1
  m_CastShadows: 1
  m_ReceiveShadows: 1
  m_DynamicOccludee: 1
  m_StaticShadowCaster: 0
  m_MotionVectors: 1
  m_LightProbeUsage: 1
  m_ReflectionProbeUsage: 1
  m_RayTracingMode: 2
  m_RayTraceProcedural: 0
  m_RenderingLayerMask: 1
  m_RendererPriority: 0
  m_Materials:
  - {fileID: 2100000, guid: db39bb6249db0924bb87d6e0bb294ed3, type: 2}
  m_StaticBatchInfo:
    firstSubMesh: 0
    subMeshCount: 0
  m_StaticBatchRoot: {fileID: 0}
  m_ProbeAnchor: {fileID: 0}
  m_LightProbeVolumeOverride: {fileID: 0}
  m_ScaleInLightmap: 1
  m_ReceiveGI: 1
  m_PreserveUVs: 0
  m_IgnoreNormalsForChartDetection: 0
  m_ImportantGI: 0
  m_StitchLightmapSeams: 1
  m_SelectedEditorRenderState: 3
  m_MinimumChartSize: 4
  m_AutoUVMaxDistance: 0.5
  m_AutoUVMaxAngle: 89
  m_LightmapParameters: {fileID: 0}
  m_SortingLayerID: 0
  m_SortingLayer: 0
  m_SortingOrder: 0
  m_AdditionalVertexStreams: {fileID: 0}
--- !u!33 &2096229596
MeshFilter:
  m_ObjectHideFlags: 0
  m_CorrespondingSourceObject: {fileID: 0}
  m_PrefabInstance: {fileID: 0}
  m_PrefabAsset: {fileID: 0}
  m_GameObject: {fileID: 2096229593}
  m_Mesh: {fileID: 4300000, guid: 7ea26c1ee23534e45906e4c8dd184883, type: 2}
--- !u!4 &2096229597
Transform:
  m_ObjectHideFlags: 0
  m_CorrespondingSourceObject: {fileID: 0}
  m_PrefabInstance: {fileID: 0}
  m_PrefabAsset: {fileID: 0}
  m_GameObject: {fileID: 2096229593}
  serializedVersion: 2
  m_LocalRotation: {x: 0, y: 1, z: 0, w: 0}
  m_LocalPosition: {x: 0, y: 0, z: 0}
  m_LocalScale: {x: 100, y: 100, z: 100}
  m_ConstrainProportionsScale: 0
  m_Children: []
  m_Father: {fileID: 0}
  m_LocalEulerAnglesHint: {x: 0, y: 180, z: 0}
--- !u!1660057539 &9223372036854775807
SceneRoots:
  m_ObjectHideFlags: 0
  m_Roots:
  - {fileID: 1599412323}
  - {fileID: 2096229597}
  - {fileID: 1023118011}
  - {fileID: 149485209}
